{
    "type": "service_account",
    "project_id": "camportalsplash",
    "private_key_id": "9dfa55ec4ef82c2476a89006b79aae0274c1ac3f",
    "private_key": "-----BEGIN PRIVATE KEY-----\nMIIEvQIBADANBgkqhkiG9w0BAQEFAASCBKcwggSjAgEAAoIBAQCj9rMQ+AAVs8DW\npVdSG6c9vXZBFL0efdrB5mr1UXsKQU+QfW1jrVOcI/K+ayShXUaCU7a4JUtQqyc4\nHLz8ThKROoeSZtwvOq7XjwU/IC+gtbV+9f62NeFD1JHQXsJmgXEToOB9Cqd6/Ku+\nPwIdtFgqdboQXnHiHH71bPW98rghLDd/W3h7EYJEnOFeHVkjLUA0dajznWBYckk/\nPRHkLzSnbWaEdh4szv/QcvxcelPOhBN2lBcJEJqeYid6jPkv6Y0OpTDnm/m5OF+2\nHSKq2kieSaGJA5rlROcfJUGWVhI2h3J2q6w7QS5T0WybsqKQqsx8MXgrbiLA5BkT\nEWub6HqxAgMBAAECggEABXNuZQ5FnHMXIlupUUC7mN0bWRMKLYEUHHWfUSwGCeN9\ndGmDETkCKlL0nzl7JIUwEqWbUbhlrlceTOqBquaijeLy/l4+jDBofyCRVVWp168q\nyz982gxlAocG2PVJg7RicLtcszN/OWK8h+za0md8Nd8nkiM9qH13iAu5CLlQv0OG\nLdNz/mwt3ivDUv1bzfu2vyIlOZ48h7R4Rz9oQjZ3FnT73whuQrJPaKtGxAXzSXdr\nZW2RCHIa3FaCxiUvWbxyse5BsR7oRl+8Qy1lomgS95Jip4SnsMCKOGbgcw3r7i9f\nTGI7N7EJMgU7B8qFCwPwuTWrX4uJBzydpRD0ML2BsQKBgQDQ5mnM2jmoQ8p9/8jt\n6uw+3r+NrVTUAji/2ETjD//8lDcnffFZVuKmJ2gepk2fPlvFpwX2nJmLEa29n2gi\nY72Ak8TbT7kz00GdMKLzlO4HkRJsWi9dE6g60rmGGzQW6NBQ5A8YrvIQybkAM0SR\nP55UsCd9nO/Mbbdme9F6RiBDeQKBgQDI7pW/vDMzs5wiPpzwilqXx8GjVhdql5za\ntw1kAyDRzTur20Xm7LWr8O4HH8BGxT4WMW+U5IhMCeogZq2jIwb06AnEfzqWCxed\nMkyHSpiytt8dsc25pNFnXPKFSvk2IOIqvKSr/zFfRfR2gqBRWWSfYF03e9nytoCx\nkhj9vN0q+QKBgD2WAFEFcQQbYEI/O4Rwws9SKhThqeWK9iIQ51YtrGFRbOU2qwWU\nqOMlMPwAOVgeMT4XHJn01wt53cfOjAu/benPJrUlTstpl6l44kF/gaE3csAA4n/F\nQM5+u3U+5d9vKaL/aTf0s6ahYeoeMzPDFrGO8UWGE+gn3G7ZSAuNSwu5AoGBAIbe\nzplyZBPyHX1G9eTnmUOEC8/tO66KsfiFInHdP6xTzBfhCRymCpOtFrilcVSPlMsk\nx7bzZyFTDlpNUYPNQSAmmFfS5qpMK7+SQZgWVESxRzYRYPuZTA3Lb+ZUms7gZ680\nDHx+wM8oj5z0tVOlY0svTaKueW7XXa7TV/8JRJNRAoGAGNAwDm7fcSi73gRC8Cpc\nEHNeU6GtOO1qTbLy4EI24lp3R4LGlHq50hkARcxEJR7Ws6mViCfStSZPjYXZPa1j\nGAVxmMBVrq2BF9h+iKsAgoKodjh+YaTwyE3+SF0WIpg1so3V+iKqPg/HNgzYQOTG\nonC9+JaOWcZgiJdKcRMif+E=\n-----END PRIVATE KEY-----\n",
    "client_email": "firebase-adminsdk-oi008@camportalsplash.iam.gserviceaccount.com",
    "client_id": "112660175733483746445",
    "auth_uri": "https://accounts.google.com/o/oauth2/auth",
    "token_uri": "https://oauth2.googleapis.com/token",
    "auth_provider_x509_cert_url": "https://www.googleapis.com/oauth2/v1/certs",
    "client_x509_cert_url": "https://www.googleapis.com/robot/v1/metadata/x509/firebase-adminsdk-oi008%40camportalsplash.iam.gserviceaccount.com"
}
